Modelos Lineares Bayesianos
…
## Simulacao da distribuicao posterior conjunta (m = 5000)
m <- 5000
prec <- rgamma(m, (n - 3) / 2, se^2 * (n - 3) / 2)
sig2 <- 1 / prec

beta_post <- t(sapply(seq_len(m), function(l)
    mvrnorm(1, est, sig2[l] * Vbeta)))
colnames(beta_post) <- c("beta0", "beta1", "beta2")
beta_post |>
    as_tibble()

# A tibble: 5,000 × 3
   beta0   beta1 beta2
   <dbl>   <dbl> <dbl>
 1  6.27 -0.208   1.37
 2  6.36 -0.201   1.29
 3  6.20  0.0228  1.36
 4  6.12 -0.213   1.33
 5  6.22 -0.203   1.40
 6  6.20 -0.0621  1.19
 7  6.10 -0.156   1.35
 8  6.23 -0.343   1.24
 9  6.45 -0.0759  1.40
10  6.02 -0.111   1.08
# ℹ 4,990 more rows
…
